{"failedCount":0,"prefixedPath":"src\/test\/resources\/feature\/testApi.feature","packageQualifiedName":"src.test.resources.feature.testApi","loopIndex":-1,"relativePath":"src\/test\/resources\/feature\/testApi.feature","scenarioResults":[{"sectionIndex":0,"stepResults":[{"result":{"nanos":68443800,"millis":68.4438,"status":"passed"},"step":{"background":true,"line":4,"prefix":"*","index":0,"text":"url 'https:\/\/reqres.in\/'"}},{"result":{"nanos":447400,"millis":0.4474,"status":"passed"},"step":{"line":8,"prefix":"Given","index":0,"text":"path '\/api\/users?page=2'"}},{"result":{"nanos":872432700,"millis":872.4327,"status":"passed"},"step":{"line":9,"prefix":"When","index":1,"text":"method GET"},"stepLog":"13:18:40.280 request:\n1 > GET https:\/\/reqres.in\/api\/users%3Fpage=2\n1 > Host: reqres.in\n1 > Connection: Keep-Alive\n1 > User-Agent: Apache-HttpClient\/4.5.14 (Java\/11.0.19)\n1 > Accept-Encoding: gzip,deflate\n\n\n13:18:40.866 response time in milliseconds: 583\n1 < 200\n1 < Date: Fri, 18 Aug 2023 18:18:41 GMT\n1 < Content-Type: application\/json; charset=utf-8\n1 < Transfer-Encoding: chunked\n1 < Connection: keep-alive\n1 < X-Powered-By: Express\n1 < Access-Control-Allow-Origin: *\n1 < Etag: W\/\"2c1-N6Rqerxquq2kgQhL51EiSg4x0R8\"\n1 < Via: 1.1 vegur\n1 < Cache-Control: max-age=14400\n1 < CF-Cache-Status: MISS\n1 < Report-To: {\"endpoints\":[{\"url\":\"https:\\\/\\\/a.nel.cloudflare.com\\\/report\\\/v3?s=8WHwXcNvRGLLT50bGxbTc0NuBwfSCdRpmZZ7OGf87rNacYGs2aa1duxOaSgYLXgO9feBH1MjyIquidJD2IeyyPXrKfUELkzVLLw8HOOHGPHfEpe%2FeYu8iIz4xg%3D%3D\"}],\"group\":\"cf-nel\",\"max_age\":604800}\n1 < NEL: {\"success_fraction\":0,\"report_to\":\"cf-nel\",\"max_age\":604800}\n1 < Vary: Accept-Encoding\n1 < Server: cloudflare\n1 < CF-RAY: 7f8c29298f978db5-MIA\n{\"page\":1,\"per_page\":6,\"total\":12,\"total_pages\":2,\"data\":[{\"id\":1,\"name\":\"cerulean\",\"year\":2000,\"color\":\"#98B2D1\",\"pantone_value\":\"15-4020\"},{\"id\":2,\"name\":\"fuchsia rose\",\"year\":2001,\"color\":\"#C74375\",\"pantone_value\":\"17-2031\"},{\"id\":3,\"name\":\"true red\",\"year\":2002,\"color\":\"#BF1932\",\"pantone_value\":\"19-1664\"},{\"id\":4,\"name\":\"aqua sky\",\"year\":2003,\"color\":\"#7BC4C4\",\"pantone_value\":\"14-4811\"},{\"id\":5,\"name\":\"tigerlily\",\"year\":2004,\"color\":\"#E2583E\",\"pantone_value\":\"17-1456\"},{\"id\":6,\"name\":\"blue turquoise\",\"year\":2005,\"color\":\"#53B0AE\",\"pantone_value\":\"15-5217\"}],\"support\":{\"url\":\"https:\/\/reqres.in\/#support-heading\",\"text\":\"To keep ReqRes free, contributions towards server costs are appreciated!\"}}\n\n"},{"result":{"nanos":16900,"millis":0.0169,"status":"passed"},"step":{"line":10,"prefix":"Then","index":2,"text":"status 200"}}],"line":7,"description":"","durationMillis":941.3408,"failed":false,"tags":["Test01"],"executorName":"main","name":"Retrieve user data","startTime":1692382719935,"refId":"[1:7]","endTime":1692382720889,"exampleIndex":-1}],"callDepth":0,"name":"API Tests","description":"","resultDate":"2023-08-18 01:18:40 PM","durationMillis":941.3408,"passedCount":1}